<svg xmlns="http://www.w3.org/2000/svg" width="24" height="24" viewBox="0 0 24 24">
  <path d="M11.999,0.5 C5.6249,0.5 0.5,5.648 0.5,12 C0.5,17.082 3.794,21.392 8.365,22.914 C8.939,23.017 9.121,22.678 9.121,22.373 C9.121,22.099 9.127,21.336 9.121,20.376 C5.923,21.07 5.26,18.861 5.26,18.861 C4.737,17.532 3.985,17.179 3.985,17.179 C2.94,16.465 4.062,16.48 4.062,16.48 C5.215,16.56 5.824,17.664 5.824,17.664 C6.85,19.422 8.515,18.914 9.17,18.62 C9.276,17.878 9.572,17.369 9.901,17.084 C7.347,16.792 4.663,15.807 4.663,11.398 C4.663,10.143 5.111,9.117 5.847,8.312 C5.729,8.023 5.333,6.852 5.959,5.269 C5.959,5.269 6.926,4.96 9.121,6.449 C10.039,6.193 11.023,6.066 12.001,6.061 C12.977,6.066 13.961,6.193 14.881,6.449 C17.076,4.961 18.04,5.269 18.04,5.269 C18.667,6.852 18.272,8.023 18.154,8.312 C18.89,9.117 19.337,10.143 19.337,11.398 C19.337,15.818 16.648,16.789 14.086,17.072 C14.498,17.429 14.873,18.119 14.873,19.192 C14.873,20.63 14.873,21.998 14.873,22.376 C14.873,22.684 15.059,23.023 15.643,22.912 C20.209,21.389 23.5,17.08 23.5,12 C23.5,5.648 18.352,0.5 11.999,0.5 Z"/>
</svg>
